[
	{
		"page_title": "Accounting",
		"page_meta_description": "Learn how to prepare and interpret financial data for managers, investors and the general public as you train in our accounting program.",
		"category": "Studies",
		"page_uri": "/accounting"
	},
	{
		"page_title": "Applied Missions",
		"page_meta_description": "Combine classroom study and a cross-cultural mission-oriented experience. Explore the history and present state of missions work in the world.",
		"category": "Studies",
		"page_uri": "/applied-missions"
	},
	{
		"page_title": "Applied Music",
		"page_meta_description": "Develop skills and learn techniques to improve your performance as a vocalist or instrumentalist. Explore our Applied Music minor.",
		"category": "Studies",
		"page_uri": "/applied-music"
	},
	{
		"page_title": "Art Education",
		"page_meta_description": "Become an Art Teacher. Combine professional education with art Studies to prepare for a career as an artist/teacher.",
		"category": "Studies",
		"page_uri": "/art-education"
	},
	{
		"page_title": "Art History",
		"page_meta_description": "Understand the context for how we view art today. Students in this minor will learn how our culture has been formed and transformed by artists over time.",
		"category": "Studies",
		"page_uri": "/art-history"
	},
	{
		"page_title": "Biblical Languages",
		"page_meta_description": "Learn biblical languages like Greek & Hebrew, then learn how they translate between the Old & New Testaments.",
		"category": "Studies",
		"page_uri": "/biblical-languages"
	},
	{
		"page_title": "Biblical Literature",
		"page_meta_description": "Explore Biblical literature through in-depth study, culminating with a senior paper and presentation.",
		"category": "Studies",
		"page_uri": "/biblical-literature"
	},
	{
		"page_title": "Biochemistry",
		"page_meta_description": "The science of chemical processes in living organisms, biochemistry provides scientific knowledge for jobs in agriculture, toxicology, medicine, etc.",
		"category": "Studies",
		"page_uri": "/biochemistry"
	},
	{
		"page_title": "Biology",
		"page_meta_description": "Study living organisms, their physiology, anatomy, and behavior. Take classes on cell, plant, and animal biology to gain a broad biological understanding.",
		"category": "Studies",
		"page_uri": "/biology"
	},
	{
		"page_title": "Biology Science Education",
		"page_meta_description": "Along with the biology core and a variety of science Studies, you'll take education Studies designed to prepare you to effectively teach/manage classrooms.",
		"category": "Studies",
		"page_uri": "/biology-science-education"
	},
	{
		"page_title": "Chemistry",
		"page_meta_description": "Learn chemistry's practical applications with extensive lab experience. Prepare for further study at the graduate level or employment in chemistry fields.",
		"category": "Studies",
		"page_uri": "/chemistry"
	},
	{
		"page_title": "Chemistry Education",
		"page_meta_description": "This major will prepare you to teach chemistry in secondary schools. Spend a semester your senior year student-teaching in middle/high school classrooms.",
		"category": "Studies",
		"page_uri": "/chemistry-education"
	},
	{
		"page_title": "Chemistry — Environmental Science",
		"page_meta_description": "Take major chemistry classes and several env-sci classes. Careers include environmental research or industrial/municipal environmental monitoring/control.",
		"category": "Studies",
		"page_uri": "/chemistry-environmental-science"
	},
	{
		"page_title": "Christian Ministries",
		"page_meta_description": "Learn relationships and discipleship, doing Bible study and leadership development, and learn the historical and psychological foundations of ministry.",
		"category": "Studies",
		"page_uri": "/christian-ministries"
	},
	{
		"page_title": "Church Music Ministries",
		"page_meta_description": "Taylor University offers a minor in Church Music Ministries.",
		"category": "Studies",
		"page_uri": "/church-music-ministries"
	},
	{
		"page_title": "Coaching",
		"page_meta_description": "Take classes on training, coaching principles and psychology, and athletic injury. Jobs include coaching, camp and recreational work, and athletic ministry.",
		"category": "Studies",
		"page_uri": "/coaching"
	},
	{
		"page_title": "Communication Studies",
		"page_meta_description": "Sharpen your spoken, written, and non-verbal communication skills by studying and applying theories of communication in our communication studies major.",
		"category": "Studies",
		"page_uri": "/communication-studies"
	},
	{
		"page_title": "Computer Engineering",
		"page_meta_description": "This ABET-Accredited program prepares students for jobs and graduate programs involving robotics, biomedical implants, data acquisition systems, and more.",
		"category": "Studies",
		"page_uri": "/computer-engineering"
	},
	{
		"page_title": "Computer Science",
		"page_meta_description": "Solve problems using technology. Build web sites. Design software applications. Explore the behind-the-scenes workings of modern technology.",
		"category": "Studies",
		"page_uri": "/computer-science"
	},
	{
		"page_title": "Computer Science / Cybersecurity",
		"page_meta_description": "Get hands-on experience applying theories and techniques of digital forensics, software reverse engineering, cryptography, security design, and more.",
		"category": "Studies",
		"page_uri": "/computer-science-cybersecurity"
	},
	{
		"page_title": "Computer Science / Digital Media",
		"page_meta_description": "Interdisciplinary major offered by the CSE, Media Com., and Art Departments. This degree is a hybrid of logic, communication, and the art of design.",
		"category": "Studies",
		"page_uri": "/computer-science-digital-media"
	},
	{
		"page_title": "Corporate Communication",
		"page_meta_description": "Develop communication skills for professional and business settings. This minor pairs especially well with business, management, and marketing majors.",
		"category": "Studies",
		"page_uri": "/corporate-communication"
	},
	{
		"page_title": "Creative Writing",
		"page_meta_description": "Exercise your creative muscle in classes on poetry, fiction, and creative nonfiction writing with a creative writing minor.",
		"category": "Studies",
		"page_uri": "/creative-writing"
	},
	{
		"page_title": "Economics",
		"page_meta_description": "Study decisions involving the motion of people, capital, and goods. Prepare for careers in business, government, public affairs, missions, and more.",
		"category": "Studies",
		"page_uri": "/economics"
	},
	{
		"page_title": "Educational Studies",
		"page_meta_description": "Learn to lead a classroom and teach subject matter to elementary students. Jobs include private schools, youth ministries, and education opportunities.",
		"category": "Studies",
		"page_uri": "/educational-studies"
	},
	{
		"page_title": "Elementary Education",
		"page_meta_description": "You'll learn instruction, subject matter, and classroom management — leads to a K-6 elementary generalist license approved by IDOE and accredited by NCATE.",
		"category": "Studies",
		"page_uri": "/elementary-education"
	},
	{
		"page_title": "Engineering",
		"page_meta_description": "Incorporating the studies of physics, engineering, and mathematics, this degree explores how these disciplines work together to solve real-world problems.",
		"category": "Studies",
		"page_uri": "/engineering"
	},
	{
		"page_title": "English",
		"page_meta_description": "Write your own prose and poetry, analyze literary works for their cultural and symbolic significance, and dive into literary work from around the world.",
		"category": "Studies",
		"page_uri": "/english"
	},
	{
		"page_title": "English Education",
		"page_meta_description": "Along with taking classes to develop your writing and literary analysis skills, you'll learn to run a classroom. You'll spend a semester student-teaching.",
		"category": "Studies",
		"page_uri": "/english-education"
	},
	{
		"page_title": "Entrepreneurship",
		"page_meta_description": "Create new products or companies, analyze numbers, or create marketing plans. Lead ethically by serving people and making a difference for God’s kingdom.",
		"category": "Studies",
		"page_uri": "/entrepreneurship"
	},
	{
		"page_title": "Environmental Science",
		"page_meta_description": "Learn the science of the the natural world by taking environmental law, policy, and ethics classes, and gain a grounding in biology, chemistry, and geology.",
		"category": "Studies",
		"page_uri": "/environmental-science"
	},
	{
		"page_title": "Ethics",
		"page_meta_description": "Learn to approach complex modern issues from a variety of angles. This minor pairs especially well with majors in business, public health, and journalism.",
		"category": "Studies",
		"page_uri": "/ethics"
	},
	{
		"page_title": "Exercise Science",
		"page_meta_description": "Learn how exercise and nutrition affect health and performance; see how the body functions during exercise through anatomy, chemistry, and biology Studies.",
		"category": "Studies",
		"page_uri": "/exercise-science"
	},
	{
		"page_title": "Film & Media Production",
		"page_meta_description": "Learn narrative filmmaking, documentary filmmaking, video production for clients, and multi-camera studio production using state-of-the-art equipment.",
		"category": "Studies",
		"page_uri": "/film-and-media-production"
	},
	{
		"page_title": "Finance",
		"page_meta_description": "Study business principles; manage real money; prepare for Series 7. Careers include banking, insurance, gov't, real estate, financial planning, and more.",
		"category": "Studies",
		"page_uri": "/finance"
	},
	{
		"page_title": "Geography",
		"page_meta_description": "Geography students are fascinated by the earth, its natural formations, how geography has impacted human history, and how humanity impacts geography.",
		"category": "Studies",
		"page_uri": "/geography"
	},
	{
		"page_title": "Graphic Art",
		"page_meta_description": "Be creative. Toy with visual ideas. Develop your artistic voice. In our Graphic Art major, learn graphic design, illustration, animation, or photography.",
		"category": "Studies",
		"page_uri": "/graphic-art"
	},
	{
		"page_title": "History",
		"page_meta_description": "Follow your curiosity, while challenging your assumptions of how the world works and sharpening your ability to make connections and think critically.",
		"category": "Studies",
		"page_uri": "/history"
	},
	{
		"page_title": "Intercultural Studies / Missions",
		"page_meta_description": "Learn the history and present state of Christian missions work around the world through a series of Studies and a required cross-cultural experience.",
		"category": "Studies",
		"page_uri": "/intercultural-studies-missions"
	},
	{
		"page_title": "International Relations",
		"page_meta_description": "Classes cover broad overviews of historical thought regarding liberty and equality as well as the more specific political history of the Middle East.",
		"category": "Studies",
		"page_uri": "/international-relations"
	},
	{
		"page_title": "International Studies",
		"page_meta_description": "Expand your knowledge of the world. Students are encouraged to explore art, economics, communication, and politics while concentrating on a particular area.",
		"category": "Studies",
		"page_uri": "/international-studies"
	},
	{
		"page_title": "Interpersonal and Public Communication",
		"page_meta_description": "Advance your skills in communicating across personal and cultural boundaries. Prepare for careers involving communication, people-skills, and speaking.",
		"category": "Studies",
		"page_uri": "/interpersonal-and-public-communication"
	},
	{
		"page_title": "Journalism / Media Writing",
		"page_meta_description": "Craft messages with insight. Understand the interactions of media, faith, and society, while considering ethical challenges faced by media professionals.",
		"category": "Studies",
		"page_uri": "/journalism-media-writing"
	},
	{
		"page_title": "Keyboard Pedagogy",
		"page_meta_description": "",
		"category": "Studies",
		"page_uri": "/keyboard-pedagogy"
	},
	{
		"page_title": "Legal Studies",
		"page_meta_description": "Classes in the Legal Studies minor range from Business Law to Civil Rights and Liberties to Institutional Powers and American Constitutional Development.",
		"category": "Studies",
		"page_uri": "/legal-studies"
	},
	{
		"page_title": "Literature",
		"page_meta_description": "Explore the classics and what makes them significant. Our Literary London travel course fulfills one class requirement for this minor.",
		"category": "Studies",
		"page_uri": "/literature"
	},
	{
		"page_title": "Management",
		"page_meta_description": "Learn best management practices and more. Possible careers include logistics, retail management, human resource management, and entrepreneurial ventures.",
		"category": "Studies",
		"page_uri": "/management"
	},
	{
		"page_title": "Marketing",
		"page_meta_description": "Learn to create, communicate, deliver value to customers, and manage relationships. Possible careers include sales, advertising, and market research.",
		"category": "Studies",
		"page_uri": "/marketing"
	},
	{
		"page_title": "Mathematics",
		"page_meta_description": "Go deeper into mathematics, developing your understanding of calculus, statistics, & mathematical applications with a Mathematics major.",
		"category": "Studies",
		"page_uri": "/mathematics"
	},
	{
		"page_title": "Mathematics Education",
		"page_meta_description": "Do you appreciate and understand mathematics and have a passion for education? Prepare yourself to teach at the middle or high school level with this major.",
		"category": "Studies",
		"page_uri": "/mathematics-education"
	},
	{
		"page_title": "Mathematics – Interdisciplinary",
		"page_meta_description": "Learn problem solving, reasoning, data analysis, communication, & teamwork. Follow your curiosity. Pursue a Mathematics — Interdisciplinary major.",
		"category": "Studies",
		"page_uri": "/mathematics-interdisciplinary"
	},
	{
		"page_title": "Musical Theatre",
		"page_meta_description": "Are you a serious artist passionate about music, theatre, & dance? Take your art to the next level with a Musical Theatre major at Taylor University.",
		"category": "Studies",
		"page_uri": "/musical-theatre"
	},
	{
		"page_title": "Music",
		"page_meta_description": "Gain training in music theory, history, & technology that will prepare you to build a career in the music world with a Music major at Taylor University.",
		"category": "Studies",
		"page_uri": "/music"
	},
	{
		"page_title": "Music Composition",
		"page_meta_description": "Compose sacred or secular music, teach theory/composition at high school or college levels, or prepare for graduate school with a Music Composition major.",
		"category": "Studies",
		"page_uri": "/music-composition"
	},
	{
		"page_title": "Music Education",
		"page_meta_description": "Are you passionate about teaching music and the ways music can impact the lives of children? Pursue a major in choral or instrumental music education.",
		"category": "Studies",
		"page_uri": "/music-education"
	},
	{
		"page_title": "Music Performance",
		"page_meta_description": "Prepare for graduate school & possible careers as a solo performer, accompanist, private teacher, conductor, or professor. Pursue a Music Performance Major.",
		"category": "Studies",
		"page_uri": "/music-performance"
	},
	{
		"page_title": "Nursing",
		"page_meta_description": "Build a scientific foundation while gaining key skills in critical thinking and creative problem solving. Learn more about the Nursing 3+1 Program.",
		"category": "Studies",
		"page_uri": "/nursing"
	},
	{
		"page_title": "Orphans & Vulnerable Children",
		"page_meta_description": "Take classes in developmental psychology, law and justice, & public health, among others, to obtain a broad understanding of factors impacting children.",
		"category": "Studies",
		"page_uri": "/orphans-and-vulnerable-children"
	},
	{
		"page_title": "Philosophy",
		"page_meta_description": "Consider worldviews & life's most pressing issues. Explore the history of philosophy, while tackling contemporary issues with a Philosophy major or minor.",
		"category": "Studies",
		"page_uri": "/philosophy"
	},
	{
		"page_title": "Photography",
		"page_meta_description": "Required Studies cover the fundamentals of photography and how to use digital tools. Pursue a Photography minor at Taylor University.",
		"category": "Studies",
		"page_uri": "/photography"
	},
	{
		"page_title": "Physics",
		"page_meta_description": "Dive into the complex functions of the physical world—quantum mechanics, electricity, magnetism, waves, optics, thermodynamics. Pursue a major in Physics.",
		"category": "Studies",
		"page_uri": "/physics"
	},
	{
		"page_title": "Physics / Mathematics Education",
		"page_meta_description": "Learn to teach physics and mathematics to students in grades 5-12. Pursue a major in Physics/Mathematics Education at Taylor University.",
		"category": "Studies",
		"page_uri": "/physics-mathematics-education"
	},
	{
		"page_title": "Physics Science Education",
		"page_meta_description": "Learn to teach physics to students in grades 5-12. Gain in-depth knowledge of physics and relevant mathematics. Pursue a major in Physics Science Education.",
		"category": "Studies",
		"page_uri": "/physics-science-education"
	},
	{
		"page_title": "Political Science",
		"page_meta_description": "",
		"category": "Studies",
		"page_uri": "/political-science"
	},
	{
		"page_title": "Political Science, Philosophy & Economics (PPE)",
		"page_meta_description": "Get a nuanced understanding of how the world operates. For a layered examination of global realities, major in Political Science, Philosophy, and Economics.",
		"category": "Studies",
		"page_uri": "/political-science-philosophy-and-economics"
	},
	{
		"page_title": "Pre-Art Therapy",
		"page_meta_description": "Combine core psychology Studies with a broad range of art classes designed to teach you how to lead others in artistic exercises. Major in Pre-Art Therapy.",
		"category": "Studies",
		"page_uri": "/pre-art-therapy"
	},
	{
		"page_title": "Professional Writing",
		"page_meta_description": "Learn the ins and outs of the publishing industry, while broadening your writing skills across a variety of forms and genres. Major in Professional Writing.",
		"category": "Studies",
		"page_uri": "/professional-writing"
	},
	{
		"page_title": "Psychology",
		"page_meta_description": "Experience true integration of Psychology and Christianity through diverse course work and a hands-on education here and abroad. Major in Psychology.",
		"category": "Studies",
		"page_uri": "/psychology"
	},
	{
		"page_title": "Public Health",
		"page_meta_description": "Look past the basic biology of problems & diseases to identify societal issues that contribute to community health. Seek solutions. Major in Public Health.",
		"category": "Studies",
		"page_uri": "/public-health"
	},
	{
		"page_title": "Public Relations",
		"page_meta_description": "Prepare for a career in publicity, event planning, or community relations. Do work for clients. Learn strategic communication. Major in Public Relations.",
		"category": "Studies",
		"page_uri": "/public-relations"
	},
	{
		"page_title": "Social Studies Education",
		"page_meta_description": "Learn to teach social studies at the middle and high school levels. Study the world in-depth. Make connections. Pursue a major in Social Studies Education.",
		"category": "Studies",
		"page_uri": "/social-studies-education"
	},
	{
		"page_title": "Social Work",
		"page_meta_description": "Learn to enhance the social functioning of individuals, families, groups, organizations, & communities. Pursue a major in Social Work.",
		"category": "Studies",
		"page_uri": "/social-work"
	},
	{
		"page_title": "Sociology",
		"page_meta_description": "Build your knowledge of research principles & methods while learning what others have discovered about human societies through research. Major in Sociology.",
		"category": "Studies",
		"page_uri": "/sociology"
	},
	{
		"page_title": "Spanish",
		"page_meta_description": "Sharpen your Spanish language skills while learning about Spanish culture & history. Spend a semester in a Spanish-speaking country. Major in Spanish.",
		"category": "Studies",
		"page_uri": "/spanish"
	},
	{
		"page_title": "Spanish Education",
		"page_meta_description": "Prepare to teach Spanish at the middle & high school levels. Study Spanish speech & culture. Learn to run a classroom. Major in Spanish Education.",
		"category": "Studies",
		"page_uri": "/spanish-education"
	},
	{
		"page_title": "Sport Management",
		"page_meta_description": "Apply the principles of business, law, ethics, marketing, public relations, and finance to the world of sports. Promote sports. Major in Sport Management.",
		"category": "Studies",
		"page_uri": "/sport-management"
	},
	{
		"page_title": "Studio Art",
		"page_meta_description": "Refine your artistic skills and develop your personal style, while learning the ins and outs of the art world from practicing artists. Major in Studio Art.",
		"category": "Studies",
		"page_uri": "/studio-art"
	},
	{
		"page_title": "Sustainable Development",
		"page_meta_description": "Build a foundational knowledge of how the fields of sustainability—environment, economics, & society—impact each other. Major in Sustainable Development.",
		"category": "Studies",
		"page_uri": "/sustainable-development"
	},
	{
		"page_title": "Systems Engineering",
		"page_meta_description": "Effectively combine supply chain factors. Increase productivity by improving processes, management, management, & technology. Major in Systems Engineering.",
		"category": "Studies",
		"page_uri": "/systems-engineering"
	},
	{
		"page_title": "English Language Teaching",
		"page_meta_description": "Teach English to speakers of other languages. Gain practical experience. Work or travel abroad. Study TESOL at Taylor University.",
		"category": "Studies",
		"page_uri": "/tesol"
	},
	{
		"page_title": "Theatre Arts",
		"page_meta_description": "Add skill to your God-given passion. Pursue excellence on and off the stage & face difficult questions in pursuit of truth. Major or minor in Theatre Arts.",
		"category": "Studies",
		"page_uri": "/theatre-arts"
	},
	{
		"page_title": "Youth Ministry",
		"page_meta_description": "Equip teens to grow. Get scriptural, educational, and ministry training with a focus on ministering to adolescents. Major or minor in Youth Ministry.",
		"category": "Studies",
		"page_uri": "/youth-ministry"
	}
]